{
  "license": "cc-by",
  "specStatus": "base",
  "otherLinks": [
    {
      "key": "Senaste version",
      "data": [
        {
          "value": "https://lankadedata.se/spec/snorojning",
          "href": "https://lankadedata.se/spec/snorojning"
        }
      ]
    },
    {
      "key": "Denna version",
      "data": [
        {
          "value": "https://lankadedata.se/spec/snorojning",
          "href": "https://lankadedata.se/spec/snorojning"
        }
      ]
    },
    {
      "key": "Källkod till specifikation",
      "data": [
        {
          "value": "https://gitlab.com/sarskilt-viktiga-datamangder/snorojning",
          "href": "https://gitlab.com/sarskilt-viktiga-datamangder/snorojning"
        }
      ]
    },
    {
      "key": "Ändringslogg",
      "data": [
        {
          "value": "https://gitlab.com/sarskilt-viktiga-datamangder/snorojning/CHANGELOG.md",
          "href": "https://gitlab.com/sarskilt-viktiga-datamangder/snorojning/CHANGELOG.md"
        }
      ]
    }
  ],
  "title": "Specifikation för snöröjning",
  "subtitle": "Information om snöröjning",
  "lint": false,
  "publishDate": "2023-11-17",
  "logos": [
    {
      "src": "assets/nationell-dataverkstad.jpg",
      "alt": "Logga för Västra Götalandsregionen",
      "url": "https://www.vgregion.se/ov/dataverkstad/",
      "width": 235
    }
  ],
  "editors": [
    {
      "name": "Mattias Axell",
      "url": "mailto:mattias.axell@metasolutions.se",
      "company": "Metasolutions AB",
      "companyURL": "https://entryscape.com/"
    }
  ],
  "authors": [
    {
      "name": "Filip Dijak",
      "url": "mailto:filip.dijak@knowit.se",
      "company": "Knowit Insight Öst AB",
      "companyURL": "https://knowit.se"
    }
  ],
  "shortName": "sevärdheter",
  "format": "markdown"
}
